<svg width="18" height="20" viewBox="0 0 18 20" fill="none" xmlns="http://www.w3.org/2000/svg">
<path d="M6.51416 14.3068C8.28255 14.5157 10.0694 14.5157 11.8378 14.3068C11.8448 14.3058 11.8517 14.305 11.8587 14.3043C13.3392 14.1283 14.7977 13.8043 16.2123 13.3374C15.0209 11.7556 14.371 9.82242 14.374 7.82814V7.10985C14.374 5.73131 13.8263 4.40917 12.8515 3.43434C11.8767 2.45954 10.5546 1.91189 9.176 1.91189C7.79743 1.91189 6.47529 2.45954 5.50049 3.43434C4.52568 4.40914 3.97804 5.73127 3.97804 7.10985L3.97804 7.8274C3.98075 9.82248 3.33061 11.7558 2.13884 13.3375C3.54701 13.8023 5.00399 14.1267 6.49346 14.3043C6.50035 14.305 6.50726 14.3058 6.51416 14.3068ZM1.02535 14.1101C0.661324 13.9757 0.548226 13.5161 0.808302 13.2281C2.14508 11.7477 2.88388 9.82341 2.88118 7.82814V7.10985C2.88118 5.44036 3.54438 3.83924 4.72489 2.65874C5.90539 1.47823 7.50652 0.815025 9.176 0.815025C10.8455 0.815025 12.4466 1.47823 13.6271 2.65875C14.8076 3.83928 15.4708 5.44041 15.4708 7.10985V7.82895C15.4679 9.82339 16.2064 11.7477 17.5428 13.2281C17.8028 13.5162 17.6897 13.9758 17.3256 14.1101C15.7875 14.6779 14.1945 15.0821 12.5729 15.3165C12.6112 15.6334 12.6051 15.9552 12.5538 16.2725C12.4679 16.8044 12.2576 17.3084 11.94 17.7437C11.6223 18.1789 11.2065 18.533 10.7262 18.777C10.2459 19.0211 9.7147 19.1484 9.176 19.1484C8.6373 19.1484 8.10613 19.0211 7.62579 18.777C7.14552 18.533 6.72965 18.1789 6.41201 17.7437C6.09442 17.3084 5.88412 16.8044 5.79818 16.2725C5.74691 15.9552 5.74077 15.6333 5.77907 15.3164C4.14825 15.0805 2.55698 14.6757 1.02535 14.1101ZM6.86799 15.4481C6.842 15.6634 6.84618 15.882 6.88101 16.0975C6.93939 16.4589 7.08228 16.8014 7.29805 17.0971C7.51385 17.3928 7.79642 17.6334 8.1227 17.7992C8.4491 17.965 8.81001 18.0515 9.176 18.0515C9.54198 18.0515 9.90289 17.965 10.2293 17.7992C10.5556 17.6334 10.8381 17.3928 11.0539 17.0971C11.2697 16.8014 11.4126 16.4589 11.471 16.0975C11.5058 15.882 11.51 15.6634 11.484 15.4481C9.949 15.5978 8.40301 15.5978 6.86799 15.4481Z" fill="#FF6464"/>
</svg>
